{
    "compilerOptions": {
      "baseUrl": ".",
      "paths": {
        "~config/*": ["./config/*"],
        "~core/*": ["core/*"],
        "~middleware/*": ["./middleware/*"],
        "~shared/*": ["../shared/*"],
        "~email/*": ["./email/*"]
      }
    },
    "exclude": ["node_modules"]
  }